<?xml version="1.0" encoding="UTF-8"?>
<svg width="160px" height="160px" viewBox="0 0 160 160" version="1.1" xmlns="http://www.w3.org/2000/svg" xmlns:xlink="http://www.w3.org/1999/xlink">
    <!-- Generator: Sketch 48.1 (47250) - http://www.bohemiancoding.com/sketch -->
    <title>wikishare_placeholder</title>
    <desc>Created with Sketch.</desc>
    <defs></defs>
    <g id="Page-1" stroke="none" stroke-width="1" fill="none" fill-rule="evenodd">
        <g id="wikishare_placeholder">
            <rect id="Rectangle-path" fill="#F7F7F7" fill-rule="nonzero" x="0" y="0" width="160" height="160"></rect>
            <circle id="Oval" fill="#EDEDED" fill-rule="nonzero" cx="80" cy="79.8" r="45.8"></circle>
            <path d="M80,78.6875 C83.3750169,75.5624844 87.3749769,74 92,74 L92,88.625 C87.4166438,88.625 83.4166838,90.2083175 80,93.375 C76.6249831,90.2083175 72.6250231,88.625 68,88.625 L68,74 C72.6250231,74 76.6249831,75.5624844 80,78.6875 Z M82.8125,72.8125 C82.0624962,73.6041706 81.1250056,74 80,74 C78.8749944,74 77.9270872,73.6041706 77.15625,72.8125 C76.3854128,72.0208294 76,71.0729222 76,69.96875 C76,68.8645778 76.3854128,67.9270872 77.15625,67.15625 C77.9270872,66.3854128 78.8749944,66 80,66 C81.1250056,66 82.0729128,66.3854128 82.84375,67.15625 C83.6145872,67.9270872 84,68.8645778 84,69.96875 C84,71.0729222 83.6041706,72.0208294 82.8125,72.8125 Z" id="shape" fill="#BEBEBE"></path>
        </g>
    </g>
</svg>